{
  "until": 12345,
  "results": [
  {"trigger": "all-src/2.0-1", "suite": "testing", "package": "all-src",  "arch": "amd64",  "version": "2.0-1", "status": "pass", "run_id": "1", "updated_at": "2018-10-08T21:08:00.000Z"}
  ]
}
